br\com\bradseg\eedi\dentalindividual\vo\PropostaVaziaReportVO.class
br\com\bradseg\ccep\consultacep\presentation\consultacep\webservice\CepVO.class
br\com\bradseg\eedi\emissaoexpressaservicos\proposta\webservice\ListarPropostasIntranetPorFiltroResponse.class
br\com\bradseg\eedi\dentalindividual\vo\TipoProdutor.class
br\com\bradseg\eedi\dentalindividual\vo\PlanoVOView.class
br\com\bradseg\bucb\servicos\model\service\ConsultarDadosCorrentista.class
br\com\bradseg\eedi\emissaoexpressaservicos\proposta\webservice\ObterPropostaPorCodigo.class
br\com\bradseg\eedi\dentalindividual\vo\TipoBusca.class
br\com\bradseg\ccep\consultacep\presentation\consultacep\webservice\ObterListaLogradouroPorCep.class
br\com\bradseg\ccrr\cadastrocorretores\model\corretorsucursal\webservice\ObjectFactory.class
br\com\bradseg\eedi\emissaoexpressaservicos\proposta\webservice\ListarPlanosVigentePorCanal.class
br\com\bradseg\eedi\dentalindividual\vo\Modulo10.class
br\com\bradseg\eedi\dentalindividual\vo\LabelValueIntegerVO.class
br\com\bradseg\eedi\emissaoexpressaservicos\proposta\webservice\GerarRelatorioAcompanhamentoEEDI.class
br\com\bradseg\eedi\dentalindividual\vo\FiltroPropostaVO.class
br\com\bradseg\bucb\servicos\model\vo\ContaCorrentePorCPFCNPJVO.class
br\com\bradseg\bucb\servicos\model\service\ObterContaCorrentePorIdBucResponse.class
br\com\bradseg\bucb\servicos\model\service\ValidarDVContaCorrente.class
br\com\bradseg\eedi\emissaoexpressaservicos\proposta\webservice\ProdutorVO.class
br\com\bradseg\eedi\dentalindividual\canalvenda\converter\CanalConverter.class
br\com\bradseg\eedi\dentalindividual\web\struts\LocalDateConverter.class
br\com\bradseg\inet\consultaexpressa\webservice\BusinessException.class
br\com\bradseg\bucb\servicos\model\service\ValidarDadosContaCorrente.class
br\com\bradseg\eedi\dentalindividual\vo\Sexo.class
br\com\bradseg\bucb\servicos\model\service\ObterDadosCorrentistaIDCRRTT.class
br\com\bradseg\eedi\emissaoexpressaservicos\proposta\webservice\GerarRelatorioAcompanhamentoEEDIResponse.class
br\com\bradseg\eedi\dentalindividual\vo\RelatorioAcompanhamentoPropostaEEDIVO.class
br\com\bradseg\eedi\emissaoexpressaservicos\proposta\webservice\ListarPropostasAcompanhamentoResponse.class
br\com\bradseg\eedi\emissaoexpressaservicos\proposta\webservice\ListarPlanosVigentePorCanalResponse.class
br\com\bradseg\eedi\dentalindividual\validador\ValidadorCNS.class
br\com\bradseg\ccep\consultacep\presentation\consultacep\webservice\Message.class
br\com\bradseg\eedi\emissaoexpressaservicos\proposta\webservice\ListarPlanoDisponivelParaVendaResponse.class
br\com\bradseg\eedi\emissaoexpressaservicos\proposta\webservice\BaseLocal.class
br\com\bradseg\ccep\consultacep\presentation\consultacep\webservice\CepWebServiceService.class
br\com\bradseg\ccep\consultacep\presentation\consultacep\webservice\ObterTipoLogradouroResponse.class
br\com\bradseg\eedi\dentalindividual\canalvenda\facade\CanalVendaServiceImpl.class
br\com\bradseg\eedi\emissaoexpressaservicos\proposta\webservice\SalvarPropostaVaziaResponse.class
br\com\bradseg\eedi\emissaoexpressaservicos\proposta\webservice\ItemRelatorioAcompanhamentoVO.class
br\com\bradseg\eedi\emissaoexpressaservicos\proposta\webservice\Origem.class
br\com\bradseg\eedi\dentalindividual\plano\facade\PlanoServiceFacade.class
br\com\bradseg\eedi\emissaoexpressaservicos\proposta\webservice\LoginVO.class
br\com\bradseg\eedi\emissaoexpressaservicos\proposta\webservice\ListarParaRelatorioAcompanhamentoResponse.class
br\com\bradseg\eedi\dentalindividual\exception\EEDIBusinessException.class
br\com\bradseg\eedi\emissaoexpressaservicos\proposta\webservice\ValorPlanoVO.class
br\com\bradseg\ccrr\cadastrocorretores\model\corretorsucursal\webservice\ObterMeiosContatoCorretorNaSucursal.class
br\com\bradseg\eedi\dentalindividual\vo\CorretorVO.class
br\com\bradseg\bucb\servicos\model\service\ConsultarDadosCorrentistaResponse.class
br\com\bradseg\eedi\dentalindividual\vo\Modulo11BoletoBradesco.class
br\com\bradseg\eedi\emissaoexpressaservicos\proposta\webservice\GerarBoletoResponse.class
br\com\bradseg\ccep\consultacep\presentation\consultacep\webservice\IntegrationException.class
br\com\bradseg\bucb\servicos\model\service\ValidarDadosFuncionarioResponse.class
br\com\bradseg\eedi\dentalindividual\proposta\tipocomissao\vo\TipoComissaoMercadoCorporate.class
br\com\bradseg\bucb\servicos\model\vo\ValidarDVFuncionarioEntradaVO.class
br\com\bradseg\ccrr\cadastrocorretores\model\corretorsucursal\webservice\WSBusinessException_Exception.class
br\com\bradseg\bucb\servicos\model\vo\ContaCorrenteFuncionarioIdBucVO.class
br\com\bradseg\bucb\servicos\model\vo\ArrayOfCorrentistaVO.class
br\com\bradseg\eedi\emissaoexpressaservicos\proposta\webservice\PropostaCorretorVO.class
br\com\bradseg\eedi\emissaoexpressaservicos\proposta\webservice\ListarCanaisVendaResponse.class
br\com\bradseg\eedi\dentalindividual\proposta\facade\GerarArquivoRelatorioEEDI.class
br\com\bradseg\eedi\emissaoexpressaservicos\proposta\webservice\FinalizarProposta.class
br\com\bradseg\bucb\servicos\model\vo\ValidarDadosFuncionarioSinergiaSaidaVO.class
br\com\bradseg\eedi\emissaoexpressaservicos\proposta\webservice\Message.class
br\com\bradseg\ccep\consultacep\presentation\consultacep\webservice\ObjectFactory.class
br\com\bradseg\eedi\dentalindividual\vo\PropostaVO.class
br\com\bradseg\inet\consultaexpressa\webservice\CorretorSucursalWebService.class
br\com\bradseg\eedi\emissaoexpressaservicos\proposta\webservice\ListarPropostasPorProponenteResponse.class
br\com\bradseg\bucb\servicos\model\service\ArrayOf1799424901NillableContaCorrenteVO.class
br\com\bradseg\bucb\servicos\model\exception\ArrayOf143104033NillableString.class
br\com\bradseg\bucb\servicos\model\vo\ValidarDadosFuncionarioVO.class
br\com\bradseg\eedi\emissaoexpressaservicos\proposta\webservice\ObterCanalVendaCallCenter.class
br\com\bradseg\eedi\emissaoexpressaservicos\proposta\webservice\ListarPropostasAcompanhamento.class
br\com\bradseg\eedi\dentalindividual\vo\ProdutorVO.class
br\com\bradseg\bucb\servicos\model\service\ConsultarContaCorrentePorCPFCNPJ.class
br\com\bradseg\bucb\servicos\model\exception\WebServiceBusinessException.class
br\com\bradseg\eedi\emissaoexpressaservicos\proposta\webservice\DateTime.class
br\com\bradseg\bucb\servicos\model\service\ArrayOf1799424901NillablePessoaContaCorrenteVO.class
br\com\bradseg\bucb\servicos\model\service\WebServiceIntegrationException.class
br\com\bradseg\eedi\emissaoexpressaservicos\proposta\webservice\PessoaVO.class
br\com\bradseg\eedi\emissaoexpressaservicos\proposta\webservice\ProponenteVO.class
br\com\bradseg\bucb\servicos\model\vo\ListarCorrentistasPorAgCcVO.class
br\com\bradseg\eedi\dentalindividual\vo\FormaPagamento.class
br\com\bradseg\eedi\emissaoexpressaservicos\proposta\webservice\AgenciaBancariaVO.class
br\com\bradseg\eedi\emissaoexpressaservicos\proposta\webservice\TelefoneVO.class
br\com\bradseg\eedi\dentalindividual\vo\ValorRelatorioAcompanhamentoPropostaEEDIVO.class
br\com\bradseg\inet\consultaexpressa\webservice\ConsultarListaCorretorSucursalResponse.class
br\com\bradseg\ccrr\cadastrocorretores\model\corretorsucursal\webservice\ObterDadosCorretorPorCpd.class
br\com\bradseg\ccep\consultacep\presentation\consultacep\webservice\ObterListaPorLogradouro.class
br\com\bradseg\bucb\servicos\model\service\ConsultarContaCorrentePorCPF.class
br\com\bradseg\eedi\emissaoexpressaservicos\proposta\webservice\ListarParaRelatorioAcompanhamento.class
br\com\bradseg\eedi\emissaoexpressaservicos\proposta\webservice\TipoTelefone.class
br\com\bradseg\eedi\dentalindividual\util\Utils$1.class
br\com\bradseg\ccrr\cadastrocorretores\model\corretorsucursal\webservice\ObterCorretorResponse.class
br\com\bradseg\eedi\dentalindividual\vo\BoletoVO$CalculadorLinhaDigitavel.class
br\com\bradseg\bucb\servicos\model\service\ListarCorrentistasPorAgCc.class
br\com\bradseg\ccep\consultacep\presentation\consultacep\webservice\TipoLogradouroVO.class
br\com\bradseg\eedi\dentalindividual\corretorsucursal\facade\CorretorSucursalServiceFacade.class
br\com\bradseg\eedi\dentalindividual\vo\ValorPlanoVO.class
br\com\bradseg\eedi\emissaoexpressaservicos\proposta\webservice\GerarRelatorioAcompanhamento.class
br\com\bradseg\eedi\dentalindividual\vo\TipoSucursalSeguradora.class
br\com\bradseg\eedi\dentalindividual\util\ListUtil.class
br\com\bradseg\eedi\emissaoexpressaservicos\proposta\webservice\PlanoVO.class
br\com\bradseg\eedi\emissaoexpressaservicos\proposta\webservice\ListarPropostasPorBeneficiarioResponse.class
br\com\bradseg\eedi\emissaoexpressaservicos\proposta\webservice\EstadoCivil.class
br\com\bradseg\bucb\servicos\model\service\ObterDadosBaseContaCorrentePorCPFResponse.class
br\com\bradseg\eedi\emissaoexpressaservicos\proposta\webservice\Subsegmentacao.class
br\com\bradseg\bucb\servicos\model\service\ObterContaCorrenteFuncionarioPorIDBuc.class
br\com\bradseg\ccep\consultacep\presentation\consultacep\webservice\package-info.class
br\com\bradseg\eedi\emissaoexpressaservicos\proposta\webservice\FiltroPropostaVO.class
br\com\bradseg\bucb\servicos\model\vo\ContaCorrenteVO.class
br\com\bradseg\eedi\emissaoexpressaservicos\proposta\webservice\ObterPorCodigo.class
br\com\bradseg\eedi\dentalindividual\proposta\converter\PropostaConverter.class
br\com\bradseg\eedi\emissaoexpressaservicos\proposta\webservice\Proposta100PorCentoCorretorWebService.class
br\com\bradseg\eedi\dentalindividual\vo\FiltroRelatorioAcompanhamentoEEDIVO.class
br\com\bradseg\bucb\servicos\model\service\ConsultarMeioContatoPessoaContaCorrente.class
br\com\bradseg\eedi\emissaoexpressaservicos\proposta\webservice\ObterCanalVendaPorCodigo.class
br\com\bradseg\eedi\emissaoexpressaservicos\proposta\webservice\AngariadorVO.class
br\com\bradseg\eedi\emissaoexpressaservicos\proposta\webservice\GrauParentesco.class
br\com\bradseg\ccrr\cadastrocorretores\model\corretorsucursal\webservice\CorretorServiceSessionFacadeService.class
br\com\bradseg\ccep\consultacep\presentation\consultacep\webservice\CepWebService.class
br\com\bradseg\bucb\servicos\model\service\ValidarContaCorrenteResponse.class
br\com\bradseg\ccrr\cadastrocorretores\model\corretorsucursal\webservice\ObterCorretor.class
br\com\bradseg\bucb\servicos\model\service\ListarCorrentistasPorCpfCnpjResponse.class
br\com\bradseg\ccrr\cadastrocorretores\model\corretorsucursal\webservice\package-info.class
br\com\bradseg\eedi\emissaoexpressaservicos\proposta\webservice\AtualizarStatusDaPropostaNoShoppingDeSeguros.class
br\com\bradseg\eedi\emissaoexpressaservicos\proposta\webservice\FormaPagamento.class
br\com\bradseg\eedi\dentalindividual\util\Utils$2.class
br\com\bradseg\eedi\dentalindividual\util\Report.class
br\com\bradseg\eedi\dentalindividual\support\ReportUtil.class
br\com\bradseg\bucb\servicos\model\service\package-info.class
br\com\bradseg\eedi\emissaoexpressaservicos\proposta\webservice\IntegrationException.class
br\com\bradseg\eedi\dentalindividual\vo\FiltroPeriodoVO.class
br\com\bradseg\eedi\dentalindividual\vo\BoletoVO.class
br\com\bradseg\eedi\emissaoexpressaservicos\proposta\webservice\CancelarPropostaShoppingSegurosResponse.class
br\com\bradseg\eedi\dentalindividual\validador\ListaPropostaValidator.class
br\com\bradseg\eedi\dentalindividual\vo\SituacaoProposta.class
br\com\bradseg\eedi\dentalindividual\vo\CartaoCreditoVO.class
br\com\bradseg\eedi\emissaoexpressaservicos\proposta\webservice\ConsultarProposta.class
br\com\bradseg\bucb\servicos\model\service\ListarCorrentistasPorCpfCnpj.class
br\com\bradseg\bucb\servicos\model\service\ContaCorrenteSOAPImplService.class
br\com\bradseg\eedi\dentalindividual\proposta\tipocomissao\facade\TipoComissaoServiceFacadeImpl.class
br\com\bradseg\ccep\consultacep\presentation\consultacep\webservice\ObterListaLogradouroPorCepResponse.class
br\com\bradseg\eedi\dentalindividual\util\Strings.class
br\com\bradseg\bucb\servicos\model\exception\ObjectFactory.class
br\com\bradseg\eedi\emissaoexpressaservicos\proposta\webservice\FiltroAcompanhamentoVO.class
br\com\bradseg\eedi\dentalindividual\vo\RepresentanteLegalVO.class
br\com\bradseg\ccrr\cadastrocorretores\model\corretorsucursal\webservice\WSCorretorVO.class
br\com\bradseg\eedi\emissaoexpressaservicos\proposta\webservice\ObterCanalVendaPorCodigoResponse.class
br\com\bradseg\bucb\servicos\model\service\ListarSegmentacoesPOBJeRENC.class
br\com\bradseg\eedi\dentalindividual\proposta\facade\SucursalCorretorService.class
br\com\bradseg\eedi\emissaoexpressaservicos\proposta\webservice\CancelarPropostaPorProtocolo.class
br\com\bradseg\eedi\dentalindividual\proposta\facade\GeradorPropostaFisicaServiceFacadeImpl.class
br\com\bradseg\eedi\emissaoexpressaservicos\proposta\webservice\Number.class
br\com\bradseg\ccrr\cadastrocorretores\model\corretorsucursal\webservice\ObterMeiosContatoCorretorNaSucursalResponse.class
br\com\bradseg\eedi\emissaoexpressaservicos\proposta\webservice\EnderecoVO.class
br\com\bradseg\eedi\dentalindividual\vo\SucursalCPDVO.class
br\com\bradseg\bucb\servicos\model\service\IdentificarCorrentistaSegmentoEmpresa.class
br\com\bradseg\eedi\emissaoexpressaservicos\proposta\webservice\CancelarResponse.class
br\com\bradseg\bucb\servicos\model\service\ObterIDBucPorContaCorrenteCpfCnpj.class
br\com\bradseg\eedi\dentalindividual\ccrr\facade\DadosCorretorFacade.class
br\com\bradseg\eedi\emissaoexpressaservicos\proposta\webservice\UnidadeFederativaVO.class
br\com\bradseg\eedi\dentalindividual\vo\AngariadorVO.class
br\com\bradseg\bucb\servicos\model\vo\ValidarDadosFuncionarioSinergiaEntradaVO.class
br\com\bradseg\ccep\consultacep\presentation\consultacep\webservice\IntegrationException_Exception.class
br\com\bradseg\eedi\dentalindividual\proposta\facade\GeradorPropostaFisicaServiceFacade.class
br\com\bradseg\bucb\servicos\model\vo\ListarCorrentistasPorAgCcSaidaVO.class
br\com\bradseg\bucb\servicos\model\exception\WebServiceIntegrationException.class
br\com\bradseg\eedi\dentalindividual\vo\ValorPlanoViewVO.class
br\com\bradseg\eedi\dentalindividual\vo\DependenteVO.class
br\com\bradseg\eedi\emissaoexpressaservicos\proposta\webservice\Cancelar.class
br\com\bradseg\eedi\dentalindividual\vo\EstadoCivil.class
br\com\bradseg\eedi\dentalindividual\proposta\facade\PropostaServiceFacade.class
br\com\bradseg\eedi\emissaoexpressaservicos\proposta\webservice\CorretorMasterVO.class
br\com\bradseg\eedi\emissaoexpressaservicos\proposta\webservice\ObterPlanoPorCodigoResponse.class
br\com\bradseg\eedi\dentalindividual\contacorrente\facade\ContaCorrenteServiceFacade.class
br\com\bradseg\eedi\dentalindividual\cep\facade\CepServiceFacadeImpl.class
br\com\bradseg\eedi\dentalindividual\ccrr\facade\DadosCorretorFacadeImpl.class
br\com\bradseg\ccrr\cadastrocorretores\model\corretorsucursal\webservice\WSIntegrationException.class
br\com\bradseg\eedi\emissaoexpressaservicos\proposta\webservice\CanalVendaVO.class
br\com\bradseg\bucb\servicos\model\service\ValidarContaCorrente.class
br\com\bradseg\bucb\servicos\model\exception\package-info.class
br\com\bradseg\ccep\consultacep\presentation\consultacep\webservice\CepWebServiceResponse.class
br\com\bradseg\eedi\emissaoexpressaservicos\proposta\webservice\ListarCanaisVenda.class
br\com\bradseg\eedi\dentalindividual\plano\facade\PlanoServiceFacadeImpl.class
br\com\bradseg\eedi\emissaoexpressaservicos\proposta\webservice\AbstractDateTime.class
br\com\bradseg\eedi\emissaoexpressaservicos\proposta\webservice\DependenteVO.class
br\com\bradseg\eedi\emissaoexpressaservicos\proposta\webservice\TitularVO.class
br\com\bradseg\eedi\dentalindividual\proposta\presentation\model\QueryModel.class
br\com\bradseg\eedi\dentalindividual\util\ValidacaoUtil.class
br\com\bradseg\bucb\servicos\model\vo\ListaContaCorrenteFuncionarioWsVO.class
br\com\bradseg\bucb\servicos\model\vo\ObjectFactory.class
br\com\bradseg\eedi\emissaoexpressaservicos\proposta\webservice\RelatorioAcompanhamentoVO.class
br\com\bradseg\eedi\emissaoexpressaservicos\proposta\webservice\CorretorVO.class
br\com\bradseg\bucb\servicos\model\vo\CorrentistasPorFiltrosVO.class
br\com\bradseg\eedi\dentalindividual\vo\LabelValueVO.class
br\com\bradseg\eedi\dentalindividual\vo\BeneficiariosVO.class
br\com\bradseg\bucb\servicos\model\service\ValidarDadosFuncionarioSinergia.class
br\com\bradseg\eedi\emissaoexpressaservicos\proposta\webservice\GerarRelatorioAcompanhamentoResponse.class
br\com\bradseg\eedi\emissaoexpressaservicos\proposta\webservice\ListarPorFiltroResponse.class
br\com\bradseg\eedi\dentalindividual\odontoprev\facade\OdontoprevServiceFacade.class
br\com\bradseg\eedi\dentalindividual\util\ConstantesMensagemErro.class
br\com\bradseg\eedi\dentalindividual\proposta\consulta\action\ConsultaPropostaAction.class
br\com\bradseg\eedi\dentalindividual\odontoprev\vo\AccessTokenVO.class
br\com\bradseg\eedi\dentalindividual\canalvenda\facade\CanalVendaService.class
br\com\bradseg\eedi\dentalindividual\odontoprev\vo\BandeirasVO.class
br\com\bradseg\bucb\servicos\model\service\ListarHistoricoSegmentacaoProdutoCliente.class
br\com\bradseg\eedi\dentalindividual\vo\AcompanhamentoPropostaEEDIVO.class
br\com\bradseg\eedi\dentalindividual\odontoprev\vo\RetornoVO.class
br\com\bradseg\bucb\servicos\model\service\ConsultarCorrentistasPorAgenciaContaCorrenteResponse.class
br\com\bradseg\bucb\servicos\model\service\ConsultarMeioContatoPessoaContaCorrenteResponse.class
br\com\bradseg\eedi\dentalindividual\proposta\action\PropostaAction.class
br\com\bradseg\bucb\servicos\model\service\ListarSegmentacaoProdutoCliente.class
br\com\bradseg\bucb\servicos\model\vo\ArrayOfContaCorrenteIdBucVO.class
br\com\bradseg\eedi\dentalindividual\proposta\tipocomissao\util\ConstantesTipoComissao.class
br\com\bradseg\eedi\dentalindividual\vo\SucursalVO.class
br\com\bradseg\bucb\servicos\model\service\ListarHistoricoSegmentacaoProdutoClienteResponse.class
br\com\bradseg\bucb\servicos\model\service\ObterContaCorrentePorIdBuc.class
br\com\bradseg\eedi\emissaoexpressaservicos\proposta\webservice\CartaoCreditoVO.class
br\com\bradseg\eedi\emissaoexpressaservicos\proposta\webservice\BancoVO.class
br\com\bradseg\eedi\emissaoexpressaservicos\proposta\webservice\SalvarPropostaVazia.class
br\com\bradseg\eedi\emissaoexpressaservicos\proposta\webservice\TipoSucursalSeguradora.class
br\com\bradseg\eedi\dentalindividual\vo\GrauParentescoVO.class
br\com\bradseg\eedi\dentalindividual\validador\NovaPropostaValidator.class
br\com\bradseg\eedi\emissaoexpressaservicos\proposta\webservice\BusinessException_Exception.class
br\com\bradseg\ccrr\cadastrocorretores\model\corretorsucursal\webservice\WSEnderecoVO.class
br\com\bradseg\eedi\emissaoexpressaservicos\proposta\webservice\ObterCanalVendaCallCenterResponse.class
br\com\bradseg\ccep\consultacep\presentation\consultacep\webservice\ObterListaPorRaizCepResponse.class
br\com\bradseg\bucb\servicos\model\vo\ContaCorrenteFuncionarioVO.class
br\com\bradseg\eedi\dentalindividual\contacorrente\facade\ContaCorrenteServiceFacadeImpl.class
br\com\bradseg\eedi\dentalindividual\util\Utils.class
br\com\bradseg\bucb\servicos\model\vo\ContaCorrenteIdBucVO.class
br\com\bradseg\eedi\emissaoexpressaservicos\proposta\webservice\FinalizarPropostaResponse.class
br\com\bradseg\eedi\emissaoexpressaservicos\proposta\webservice\ObterPropostaPorCodigoResponse.class
br\com\bradseg\bucb\servicos\model\service\ValidarDadosFuncionario.class
br\com\bradseg\eedi\emissaoexpressaservicos\proposta\webservice\MovimentoPropostaVO.class
br\com\bradseg\eedi\emissaoexpressaservicos\proposta\webservice\ListarPropostasPorProponente.class
br\com\bradseg\eedi\emissaoexpressaservicos\proposta\webservice\CancelarPropostaShoppingSeguros.class
br\com\bradseg\eedi\dentalindividual\vo\PlanoAnsVO.class
br\com\bradseg\eedi\emissaoexpressaservicos\proposta\webservice\TipoProdutor.class
br\com\bradseg\eedi\dentalindividual\vo\TipoCobranca.class
br\com\bradseg\eedi\emissaoexpressaservicos\proposta\webservice\ObterPlanoPorCodigo.class
br\com\bradseg\eedi\emissaoexpressaservicos\proposta\webservice\GerarPDFProposta.class
br\com\bradseg\eedi\dentalindividual\corretorsucursal\facade\CorretorSucursalServiceFacadeImpl$2.class
br\com\bradseg\ccep\consultacep\presentation\consultacep\webservice\ObterListaPorCepCompletoResponse.class
br\com\bradseg\eedi\emissaoexpressaservicos\proposta\webservice\SituacaoProposta.class
br\com\bradseg\eedi\emissaoexpressaservicos\proposta\webservice\BeneficiarioVO.class
br\com\bradseg\inet\consultaexpressa\webservice\IntegrationException_Exception.class
br\com\bradseg\eedi\dentalindividual\corretorsucursal\facade\CorretorSucursalServiceFacadeImpl$1.class
br\com\bradseg\inet\consultaexpressa\webservice\Adapter1.class
br\com\bradseg\ccrr\cadastrocorretores\model\corretorsucursal\webservice\ObterDadosCorretorPorCpdResponse.class
br\com\bradseg\eedi\dentalindividual\proposta\facade\RelatorioAcompanhamentoServiceFacadeImpl.class
br\com\bradseg\eedi\dentalindividual\proposta\facade\PropostaServiceFacadeImpl.class
br\com\bradseg\eedi\dentalindividual\validador\Validador.class
br\com\bradseg\eedi\dentalindividual\vo\TipoCPF.class
br\com\bradseg\eedi\emissaoexpressaservicos\proposta\webservice\GerarPDFPropostaResponse.class
br\com\bradseg\eedi\emissaoexpressaservicos\proposta\webservice\SalvarRascunho.class
br\com\bradseg\eedi\emissaoexpressaservicos\proposta\webservice\TipoCobranca.class
br\com\bradseg\eedi\emissaoexpressaservicos\proposta\webservice\FinalizarResponse.class
br\com\bradseg\bucb\servicos\model\service\ValidarDadosContaCorrenteResponse.class
br\com\bradseg\inet\consultaexpressa\webservice\BusinessException_Exception.class
br\com\bradseg\inet\consultaexpressa\webservice\package-info.class
br\com\bradseg\eedi\emissaoexpressaservicos\proposta\webservice\GerarBoleto.class
br\com\bradseg\eedi\emissaoexpressaservicos\proposta\webservice\AbstractPartial.class
br\com\bradseg\eedi\dentalindividual\vo\EstadoCivilVO.class
br\com\bradseg\bucb\servicos\model\vo\PessoaContaCorrenteVO.class
br\com\bradseg\eedi\dentalindividual\vo\PagamentoVO.class
br\com\bradseg\bucb\servicos\model\vo\ContaCorrenteCpfVO.class
br\com\bradseg\eedi\dentalindividual\vo\PessoaVO.class
br\com\bradseg\ccep\consultacep\presentation\consultacep\webservice\CepCompletoVO.class
br\com\bradseg\eedi\emissaoexpressaservicos\proposta\webservice\ListarPlanoDisponivelParaVenda.class
br\com\bradseg\bucb\servicos\model\service\ContaCorrenteSOAPImpl.class
br\com\bradseg\eedi\emissaoexpressaservicos\proposta\webservice\ListarPorFiltro.class
br\com\bradseg\ccrr\cadastrocorretores\model\corretorsucursal\webservice\WSTelefoneVO.class
br\com\bradseg\eedi\dentalindividual\vo\AgenciaProdutoraVO.class
br\com\bradseg\eedi\dentalindividual\validador\ValidadorProposta.class
br\com\bradseg\eedi\dentalindividual\vo\TelefoneVO.class
br\com\bradseg\eedi\dentalindividual\corretorsucursal\facade\CorretorSucursalServiceFacadeImpl.class
br\com\bradseg\eedi\emissaoexpressaservicos\proposta\webservice\IntegrationException_Exception.class
br\com\bradseg\eedi\dentalindividual\util\Constantes.class
br\com\bradseg\inet\consultaexpressa\webservice\ObjectFactory.class
br\com\bradseg\eedi\emissaoexpressaservicos\proposta\webservice\AbstractInstant.class
br\com\bradseg\eedi\dentalindividual\vo\CorretorMasterVO.class
br\com\bradseg\eedi\emissaoexpressaservicos\proposta\webservice\BusinessException.class
br\com\bradseg\bucb\servicos\model\service\ListarCorrentistasPorAgCcResponse.class
br\com\bradseg\eedi\dentalindividual\vo\ContaCorrenteVO.class
br\com\bradseg\ccrr\cadastrocorretores\model\corretorsucursal\webservice\CorretorServiceSessionFacade.class
br\com\bradseg\eedi\emissaoexpressaservicos\proposta\webservice\ListarPropostasPorBeneficiario.class
br\com\bradseg\eedi\emissaoexpressaservicos\proposta\webservice\ConsultarPropostaResponse.class
br\com\bradseg\ccep\consultacep\presentation\consultacep\webservice\ObterListaPorRaizCep.class
br\com\bradseg\bucb\servicos\model\vo\package-info.class
br\com\bradseg\bucb\servicos\model\service\ObterDadosCorrentistaIDCRRTTResponse.class
br\com\bradseg\eedi\dentalindividual\cep\facade\CepServiceFacade.class
br\com\bradseg\eedi\dentalindividual\vo\GrauParentesco.class
br\com\bradseg\eedi\dentalindividual\proposta\tipocomissao\vo\TipoComissaoRedeGerenteProduto.class
br\com\bradseg\bucb\servicos\model\service\ObterDadosBaseContaCorrentePorCPF.class
br\com\bradseg\eedi\emissaoexpressaservicos\proposta\webservice\ObjectFactory.class
br\com\bradseg\inet\consultaexpressa\webservice\Message.class
br\com\bradseg\ccrr\cadastrocorretores\model\corretorsucursal\webservice\WSBusinessException.class
br\com\bradseg\eedi\dentalindividual\proposta\tipocomissao\facade\TipoComissaoServiceFacade.class
br\com\bradseg\eedi\emissaoexpressaservicos\proposta\webservice\package-info.class
br\com\bradseg\eedi\dentalindividual\vo\EnderecoVO.class
br\com\bradseg\bucb\servicos\model\vo\ArrayOfContaCorrenteFuncionarioVO.class
br\com\bradseg\eedi\dentalindividual\odontoprev\facade\OdontoprevServiceFacadeImpl.class
br\com\bradseg\ccep\consultacep\presentation\consultacep\webservice\ObterListaLogradouroCompletoPorCep.class
br\com\bradseg\eedi\emissaoexpressaservicos\proposta\webservice\Sexo.class
br\com\bradseg\inet\consultaexpressa\webservice\ConsultarListaCorretorSucursal.class
br\com\bradseg\bucb\servicos\model\service\ArrayOf1799424901NillableContaCorrenteCpfVO.class
br\com\bradseg\eedi\dentalindividual\vo\Banco.class
br\com\bradseg\inet\consultaexpressa\webservice\CorretorSucursal.class
br\com\bradseg\eedi\emissaoexpressaservicos\proposta\webservice\CancelarPropostaPorProtocoloResponse.class
br\com\bradseg\bucb\servicos\model\service\ObjectFactory.class
br\com\bradseg\ccep\consultacep\presentation\consultacep\webservice\ObterTipoLogradouro.class
br\com\bradseg\bucb\servicos\model\service\ObterIDBucPorContaCorrenteCpfCnpjResponse.class
br\com\bradseg\eedi\dentalindividual\support\ReportFileUtil.class
br\com\bradseg\bucb\servicos\model\vo\ListarSegmentacaoProdutoClienteSaidaVO.class
br\com\bradseg\eedi\emissaoexpressaservicos\proposta\webservice\FiltroRelatorioAcompanhamentoVO.class
br\com\bradseg\eedi\emissaoexpressaservicos\proposta\webservice\ListarPropostasIntranetPorFiltro.class
br\com\bradseg\eedi\emissaoexpressaservicos\proposta\webservice\PropostaVO.class
br\com\bradseg\eedi\emissaoexpressaservicos\proposta\webservice\ObterTermoDeAdesao.class
br\com\bradseg\eedi\dentalindividual\proposta\tipocomissao\vo\TipoComissao.class
br\com\bradseg\eedi\emissaoexpressaservicos\proposta\webservice\SalvarRascunhoResponse.class
br\com\bradseg\eedi\emissaoexpressaservicos\proposta\webservice\PlanoAnsVO.class
br\com\bradseg\bucb\servicos\model\service\ValidarDadosFuncionarioSinergiaResponse.class
br\com\bradseg\eedi\emissaoexpressaservicos\proposta\webservice\AtualizarStatusDaPropostaNoShoppingDeSegurosResponse.class
br\com\bradseg\eedi\dentalindividual\util\DateConverter.class
br\com\bradseg\eedi\dentalindividual\vo\BancoVO.class
br\com\bradseg\inet\consultaexpressa\webservice\CorretorSucursalWebServiceService.class
br\com\bradseg\ccep\consultacep\presentation\consultacep\webservice\ObterListaPorCepCompleto.class
br\com\bradseg\ccep\consultacep\presentation\consultacep\webservice\CepCompletoWebServiceResponse.class
br\com\bradseg\eedi\dentalindividual\vo\CanalVO.class
br\com\bradseg\eedi\dentalindividual\util\LinkBuilder.class
br\com\bradseg\eedi\dentalindividual\util\DateUtil.class
br\com\bradseg\eedi\emissaoexpressaservicos\proposta\webservice\AcompanhamentoPropostaVO.class
br\com\bradseg\bucb\servicos\model\service\ConsultarContaCorrentePorCPFCNPJResponse.class
br\com\bradseg\eedi\emissaoexpressaservicos\proposta\webservice\ObterPorCodigoResponse.class
br\com\bradseg\bucb\servicos\model\service\WebServiceBusinessException.class
br\com\bradseg\eedi\emissaoexpressaservicos\proposta\webservice\Finalizar.class
br\com\bradseg\eedi\dentalindividual\vo\TitularVO.class
br\com\bradseg\eedi\dentalindividual\proposta\action\RelatorioAcompanhamentoAction.class
br\com\bradseg\eedi\emissaoexpressaservicos\proposta\webservice\ObterTermoDeAdesaoResponse.class
br\com\bradseg\eedi\emissaoexpressaservicos\proposta\webservice\FiltroPeriodoVO.class
br\com\bradseg\eedi\emissaoexpressaservicos\proposta\webservice\ContaCorrenteVO.class
br\com\bradseg\bucb\servicos\model\service\ConsultarCorrentistasPorAgenciaContaCorrente.class
br\com\bradseg\eedi\dentalindividual\validador\RelatorioAcompanhamentoValidator.class
br\com\bradseg\eedi\dentalindividual\proposta\tipocomissao\vo\TipoComissaoRedeCorretorMaster.class
br\com\bradseg\eedi\dentalindividual\util\FormatacaoUtil.class
br\com\bradseg\bucb\servicos\model\vo\CorrentistaVO.class
br\com\bradseg\bucb\servicos\model\vo\ArrayOfCorrentistasPorFiltrosVO.class
br\com\bradseg\eedi\emissaoexpressaservicos\proposta\webservice\ResponsavelLegalVO.class
br\com\bradseg\bucb\servicos\model\service\ValidarDVContaCorrenteResponse.class
br\com\bradseg\eedi\dentalindividual\vo\QueryInterVO.class
br\com\bradseg\eedi\dentalindividual\proposta\facade\RelatorioAcompanhamentoServiceFacade.class
br\com\bradseg\bucb\servicos\model\vo\IDBucPorContaCorrenteCpfCnpjVO.class
br\com\bradseg\eedi\dentalindividual\vo\PlanoVO.class
br\com\bradseg\bucb\servicos\model\vo\ValidarDadosContaCorrenteVO.class
br\com\bradseg\eedi\emissaoexpressaservicos\proposta\webservice\LocalDate.class
br\com\bradseg\eedi\dentalindividual\vo\BoletoVO$CalculadorCodigoBarra.class
br\com\bradseg\eedi\dentalindividual\util\GeradorBoletoBancario.class
br\com\bradseg\bucb\servicos\model\service\ListarAgenciaPorCpfCnpj.class
br\com\bradseg\bucb\servicos\model\service\ObterContaCorrenteFuncionarioPorIDBucResponse.class
br\com\bradseg\eedi\dentalindividual\proposta\action\BaseAction.class
br\com\bradseg\bucb\servicos\model\service\ConsultarContaCorrentePorCPFResponse.class
br\com\bradseg\bucb\servicos\model\vo\ValidarDVFuncionarioSaidaVO.class
br\com\bradseg\inet\consultaexpressa\webservice\IntegrationException.class
br\com\bradseg\bucb\servicos\model\service\ListarSegmentacaoProdutoClienteResponse.class
br\com\bradseg\ccep\consultacep\presentation\consultacep\webservice\ObterListaLogradouroCompletoPorCepResponse.class
br\com\bradseg\bucb\servicos\model\service\ListarSubsegmentoRencRespectivasAgencias.class
br\com\bradseg\eedi\emissaoexpressaservicos\proposta\webservice\Proposta100PorCentoCorretorWebServiceService.class
br\com\bradseg\bucb\servicos\model\vo\PessoaContaCorrenteEntradaVO.class
br\com\bradseg\eedi\emissaoexpressaservicos\proposta\webservice\BaseDateTime.class
br\com\bradseg\ccrr\cadastrocorretores\model\corretorsucursal\webservice\WSIntegrationException_Exception.class
br\com\bradseg\eedi\emissaoexpressaservicos\proposta\webservice\SucursalSeguradoraVO.class
br\com\bradseg\ccep\consultacep\presentation\consultacep\webservice\ObterListaPorLogradouroResponse.class
br\com\bradseg\eedi\dentalindividual\util\ReportFile.class
br\com\bradseg\eedi\dentalindividual\proposta\facade\SucursalCorretorServiceImpl.class
br\com\bradseg\eedi\dentalindividual\vo\TipoTelefone.class
br\com\bradseg\bucb\servicos\model\service\ArrayOf1799424901NillableContaCorrentePorCPFCNPJVO.class
